STAT 118: Introductory Statistics
…
class: center, middle, frame

# Central Limit Theorem (for means)

---

# Boston Airbnb Data

```r
airbnb_boston
```

```
## # A tibble: 2,980 x 10
##    price reviews_per_mon… accommodates bathrooms bedrooms  beds property_type
##    <dbl>            <dbl>        <dbl>     <dbl>    <dbl> <dbl> <chr>        
##  1   125             0.28            2         1        1     0 Apartment    
##  2   145             0.79            2         1        1     1 Other        
##  3   169             0.88            4         1        1     1 Other        
##  4    99             0.35            2         1        1     1 Apartment    
##  5   150             0.24            2         1        1     1 Apartment    
##  6   179             2.74            3         1        0     1 Apartment    
##  7   125             0.04            2         1        0     1 Other        
##  8   154             0.43            7         1        3     3 Apartment    
##  9   115             0.17            4         1        0     2 Other        
## 10   275             0.89            5         2        2     3 Other        
## # … with 2,970 more rows, and 3 more variables: room_type <chr>,
## #   neighbourhood <chr>, minimum_nights <dbl>
```
…
