STAT 118: Introductory Statistics
…
# Comparing Groups (again)

---

# Jam Session

[Spotify data](https://github.com/rfordatascience/tidytuesday/blob/master/data/2020/2020-01-21/readme.md)

- A *sample* of 10,458 songs from Spotify

- Songs categorized as either **rock** or **pop**

```
## # A tibble: 10,458 x 3
##    track_artist     playlist_genre danceability
##    <chr>            <chr>                 <dbl>
##  1 Ed Sheeran       pop                   0.748
##  2 Maroon 5         pop                   0.726
##  3 Zara Larsson     pop                   0.675
##  4 The Chainsmokers pop                   0.718
##  5 Lewis Capaldi    pop                   0.65 
##  6 Ed Sheeran       pop                   0.675
##  7 Katy Perry       pop                   0.449
##  8 Sam Feldt        pop                   0.542
##  9 Avicii           pop                   0.594
## 10 Shawn Mendes     pop                   0.642
## # … with 10,448 more rows
```
…
