STAT 118: Introductory Statistics
…
# Case Studies

---

# Jam Session

[Spotify data](https://github.com/rfordatascience/tidytuesday/blob/master/data/2020/2020-01-21/readme.md)

- A *sample* of 10,458 songs from Spotify

- Songs categorized as either **rock** or **pop**

```
## # A tibble: 10,458 x 3
##    track_artist     playlist_genre danceability
##    <chr>            <chr>                 <dbl>
##  1 Ed Sheeran       pop                   0.748
##  2 Maroon 5         pop                   0.726
##  3 Zara Larsson     pop                   0.675
##  4 The Chainsmokers pop                   0.718
##  5 Lewis Capaldi    pop                   0.65 
##  6 Ed Sheeran       pop                   0.675
##  7 Katy Perry       pop                   0.449
##  8 Sam Feldt        pop                   0.542
##  9 Avicii           pop                   0.594
## 10 Shawn Mendes     pop                   0.642
## # … with 10,448 more rows
```
…
class: center, middle

# Data Basics

---

# What is data?

**Data** are any collection of numbers, characters, images, or other items that provide information about something.
- Datasets are made up of **variables** measured on **cases**

--

```
## # A tibble: 32,833 x 4
##    track_name                         track_artist   playlist_genre danceability
##    <chr>                              <chr>          <chr>                 <dbl>
##  1 I Don't Care (with Justin Bieber)… Ed Sheeran     pop                   0.748
##  2 Memories - Dillon Francis Remix    Maroon 5       pop                   0.726
##  3 All the Time - Don Diablo Remix    Zara Larsson   pop                   0.675
##  4 Call You Mine - Keanu Silva Remix  The Chainsmok… pop                   0.718
##  5 Someone You Loved - Future Humans… Lewis Capaldi  pop                   0.65 
##  6 Beautiful People (feat. Khalid) -… Ed Sheeran     pop                   0.675
##  7 Never Really Over - R3HAB Remix    Katy Perry     pop                   0.449
##  8 Post Malone (feat. RANI) - GATTÜS… Sam Feldt      pop                   0.542
##  9 Tough Love - Tiësto Remix / Radio… Avicii         pop                   0.594
## 10 If I Can't Have You - Gryffin Rem… Shawn Mendes   pop                   0.642
## # … with 32,823 more rows
```
…
